[gd_scene load_steps=4 format=2]

[ext_resource path="res://Startup.gd" type="Script" id=1]
[ext_resource path="res://Client.gd" type="Script" id=2]
[ext_resource path="res://Server.gd" type="Script" id=3]

[node name="GameWorld" type="Node" index="0"]

script = ExtResource( 1 )

[node name="Client" type="Node" parent="." index="0"]

script = ExtResource( 2 )

[node name="Server" type="Node" parent="." index="1"]

script = ExtResource( 3 )

[node name="PlayersContainer" type="Node" parent="." index="2"]


